…
TANK_DF = TANK_DF %>%
  dplyr::select(Tm, Year, `Win%`, `# Top 5 picks`, `# SS Drafted`,
                `# P Drafted`, `# College Draftees`, `# Draft Picks`,
                `SS %`, `P %`, `College %`, `# Int'l Signings`,
                `Int'l Signing Money Spent`, `# FA Contracts`, `Mean FA AAV`,
                `Mean FA Length`, `Mean FA Total Value`, `Team bWAR`,
                `Team payroll`, `Draft_Class_Career_WAR`, `WARPM`)
```

    ## # A tibble: 33 × 21
    ##    Tm              Year `Win%` `# Top 5 picks` `# SS Drafted` `# P Drafted`
    ##    <chr>          <int>  <dbl>           <dbl>          <dbl>         <dbl>
    ##  1 Houston Astros  2011  0.346               5              2            24
    ##  2 Houston Astros  2012  0.34                6              6            19
    ##  3 Houston Astros  2013  0.315               5              2            21
    ##  4 Houston Astros  2014  0.432               6              2            15
    ##  5 Houston Astros  2015  0.531               7              3            15
    ##  6 Houston Astros  2016  0.519               5              1            14
    ##  7 Houston Astros  2017  0.623               7              2             0
    ##  8 Houston Astros  2018  0.636               5              5            21
    ##  9 Houston Astros  2019  0.66                5              3            21
    ## 10 Houston Astros  2020  0.483               4              1             2
    ## # ℹ 23 more rows
    ## # ℹ 15 more variables: `# College Draftees` <dbl>, `# Draft Picks` <dbl>,
    ## #   `SS %` <dbl>, `P %` <dbl>, `College %` <dbl>, `# Int'l Signings` <dbl>,
    ## #   `Int'l Signing Money Spent` <dbl>, `# FA Contracts` <dbl>,
    ## #   `Mean FA AAV` <dbl>, `Mean FA Length` <dbl>, `Mean FA Total Value` <dbl>,
    ## #   `Team bWAR` <dbl>, `Team payroll` <dbl>, Draft_Class_Career_WAR <dbl>,
    ## #   WARPM <dbl>
…
