…
## Compute predicted exit velocities

    ## # A tibble: 812 x 2
    ##    batter wMean_projected_EVs
    ##     <int>               <dbl>
    ##  1      1                89.0
    ##  2      2                81.8
    ##  3      3                87.4
    ##  4      4                86.9
    ##  5      5                87.2
    ##  6      6                87.2
    ##  7      7                86.8
    ##  8      8                88.0
    ##  9      9                89.6
    ## 10     10                88.9
    ## # ... with 802 more rows
…
